{
  "700": {
    "name": "смт. Стара Синява"
  },
  "001": {
    "name": "с. Iванкiвцi"
  },
  "002": {
    "name": "с. Iвки"
  },
  "003": {
    "name": "с. Адампiль"
  },
  "004": {
    "name": "с. Бабине"
  },
  "005": {
    "name": "с. Буглаї"
  },
  "006": {
    "name": "с. Вишневе"
  },
  "007": {
    "name": "с. Гончариха"
  },
  "008": {
    "name": "с. Гречана"
  },
  "009": {
    "name": "с. Дашківці"
  },
  "010": {
    "name": "с. Дубова"
  },
  "011": {
    "name": "с. Залiсся"
  },
  "012": {
    "name": "с. Заставці"
  },
  "013": {
    "name": "с. Ілятка"
  },
  "014": {
    "name": "с. Йосипівка"
  },
  "015": {
    "name": "с. Карпівці"
  },
  "016": {
    "name": "с. Красносілка"
  },
  "017": {
    "name": "с. Липки"
  },
  "018": {
    "name": "с. Лисанiвцi"
  },
  "019": {
    "name": "с. Миколаївка"
  },
  "020": {
    "name": "с. Мисюрівка"
  },
  "021": {
    "name": "с. Мшанець"
  },
  "022": {
    "name": "с. Нова Синявка"
  },
  "023": {
    "name": "с. Ожарiвка"
  },
  "024": {
    "name": "с. Олександрівка"
  },
  "025": {
    "name": "с. Олексіївка"
  },
  "026": {
    "name": "с. Паньківці"
  },
  "027": {
    "name": "с. Паплинцi"
  },
  "028": {
    "name": "с. Пасiчна"
  },
  "029": {
    "name": "с. Перекора"
  },
  "030": {
    "name": "с. Петрівське"
  },
  "031": {
    "name": "с. Пилява"
  },
  "032": {
    "name": "с. Пилявка"
  },
  "033": {
    "name": "с. Пишки"
  },
  "034": {
    "name": "с. Подоляни"
  },
  "035": {
    "name": "с. Рідкодуб"
  },
  "037": {
    "name": "с. Сьомаки"
  },
  "038": {
    "name": "с. Теліжинці"
  },
  "039": {
    "name": "с. Травневе"
  },
  "040": {
    "name": "с. Уласово-Русанiвка"
  },
  "041": {
    "name": "с. Харкiвцi"
  },
  "042": {
    "name": "с. Цимбалiвка"
  },
  "043": {
    "name": "с. Чехи"
  },
  "044": {
    "name": "с. Щербані"
  },
  "045": {
    "name": "с. Яблунівка"
  }
}