{
  "700": {
    "name": "м. Старокостянтинiв"
  },
  "001": {
    "name": "с. Iлляшiвка"
  },
  "002": {
    "name": "с. Андронівка"
  },
  "003": {
    "name": "с. Баглаї"
  },
  "004": {
    "name": "с. Берегелі"
  },
  "005": {
    "name": "с. Березне"
  },
  "006": {
    "name": "с. Бовкуни"
  },
  "007": {
    "name": "с. Бутiвцi"
  },
  "008": {
    "name": "с. Великi Мацевичi"
  },
  "009": {
    "name": "с. Великий Чернятин"
  },
  "010": {
    "name": "с. Вербівочка"
  },
  "011": {
    "name": "с. Вербородинцi"
  },
  "012": {
    "name": "с. Верхняки"
  },
  "013": {
    "name": "с. Веселе"
  },
  "014": {
    "name": "с. Веснянка"
  },
  "015": {
    "name": "с. Вишнопiль"
  },
  "016": {
    "name": "с. Волиця-Керекешина"
  },
  "017": {
    "name": "с. Воронкiвцi"
  },
  "018": {
    "name": "с. Гнатки"
  },
  "019": {
    "name": "с. Грибенинка"
  },
  "020": {
    "name": "с. Григорiвка"
  },
  "021": {
    "name": "с. Громiвка"
  },
  "022": {
    "name": "с. Губин"
  },
  "023": {
    "name": "с. Губча"
  },
  "024": {
    "name": "с. Демківці"
  },
  "025": {
    "name": "с. Деркачi"
  },
  "026": {
    "name": "с. Драчi"
  },
  "027": {
    "name": "с. Дубина"
  },
  "028": {
    "name": "с. Ємці"
  },
  "029": {
    "name": "с. Жабче"
  },
  "030": {
    "name": "с. Загірне"
  },
  "031": {
    "name": "с. Залісся"
  },
  "032": {
    "name": "с. Зеленці"
  },
  "033": {
    "name": "с. Іршики"
  },
  "034": {
    "name": "с. Йосипівка"
  },
  "035": {
    "name": "с. Калинівка"
  },
  "036": {
    "name": "с. Кантівка"
  },
  "037": {
    "name": "с. Капустин"
  },
  "038": {
    "name": "с. Караїмівка"
  },
  "039": {
    "name": "с. Киселі"
  },
  "040": {
    "name": "с. Коржiвка"
  },
  "041": {
    "name": "с. Костянець"
  },
  "042": {
    "name": "с. Красносілка"
  },
  "043": {
    "name": "с. Криниця"
  },
  "044": {
    "name": "с. Круглики"
  },
  "045": {
    "name": "с. Круча"
  },
  "046": {
    "name": "с. Кучівка"
  },
  "047": {
    "name": "с. Ладиги"
  },
  "048": {
    "name": "с. Лажева"
  },
  "049": {
    "name": "с. Ланок"
  },
  "050": {
    "name": "с. Левківка"
  },
  "051": {
    "name": "с. Ленінське"
  },
  "052": {
    "name": "с. Лисинці"
  },
  "053": {
    "name": "с. Малий Вишнопіль"
  },
  "054": {
    "name": "с. Малий Чернятин"
  },
  "055": {
    "name": "с. Малишівка"
  },
  "056": {
    "name": "с. Малі Мацевичі"
  },
  "057": {
    "name": "с. Мальки"
  },
  "058": {
    "name": "с. Мартинiвка"
  },
  "059": {
    "name": "с. Махаринці"
  },
  "060": {
    "name": "с. Миролюбне"
  },
  "061": {
    "name": "с. Морозівка"
  },
  "062": {
    "name": "с. Нападівка"
  },
  "063": {
    "name": "с. Немиринцi"
  },
  "064": {
    "name": "с. Немирівка"
  },
  "065": {
    "name": "с. Новоселиця"
  },
  "066": {
    "name": "с. Огiївцi"
  },
  "067": {
    "name": "с. Оріхівка"
  },
  "068": {
    "name": "с. Партинці"
  },
  "069": {
    "name": "с. Пашкiвцi"
  },
  "070": {
    "name": "с. Пеньки"
  },
  "071": {
    "name": "с. Першотравневе"
  },
  "072": {
    "name": "с. Писарівка"
  },
  "073": {
    "name": "с. Пихтії"
  },
  "074": {
    "name": "с. Підгірне"
  },
  "075": {
    "name": "с. Половинники"
  },
  "076": {
    "name": "с. Попівці"
  },
  "077": {
    "name": "с. Прохорівка"
  },
  "078": {
    "name": "с. Радкiвцi"
  },
  "079": {
    "name": "с. Райки"
  },
  "080": {
    "name": "с. Раштівка"
  },
  "081": {
    "name": "с. Решнiвка"
  },
  "082": {
    "name": "с. Самчики"
  },
  "083": {
    "name": "с. Самчинцi"
  },
  "084": {
    "name": "с. Сахнiвцi"
  },
  "085": {
    "name": "с. Северини"
  },
  "086": {
    "name": "с. Семиреньки"
  },
  "087": {
    "name": "с. Сербинівка"
  },
  "088": {
    "name": "с. Сковородки"
  },
  "089": {
    "name": "с. Старий Остропіль"
  },
  "091": {
    "name": "с. Степок"
  },
  "092": {
    "name": "с. Стецьки"
  },
  "093": {
    "name": "с. Хижники"
  },
  "094": {
    "name": "с. Хутори"
  },
  "095": {
    "name": "с. Червона Семенівка"
  },
  "096": {
    "name": "с. Чорна"
  },
  "097": {
    "name": "с. Шевченка"
  },
  "098": {
    "name": "с. Яремичі"
  }
}