{
  "700": {
    "name": "смт. Ярмолинцi"
  },
  "024": {
    "name": "с. Корначiвка"
  },
  "025": {
    "name": "с. Королівка"
  },
  "026": {
    "name": "с. Косогiрка"
  },
  "027": {
    "name": "с. Круті Броди"
  },
  "028": {
    "name": "с. Лебедівка"
  },
  "029": {
    "name": "с. Лехнівка"
  },
  "030": {
    "name": "с. Лисівка"
  },
  "031": {
    "name": "с. Лугове"
  },
  "032": {
    "name": "с. Лука"
  },
  "033": {
    "name": "с. Магнишівка"
  },
  "034": {
    "name": "с. Майдан-Морозівський"
  },
  "035": {
    "name": "с. Микитинці"
  },
  "036": {
    "name": "с. Михайлiвка"
  },
  "037": {
    "name": "с. Михалківці"
  },
  "038": {
    "name": "с. Монастирок"
  },
  "039": {
    "name": "с. Москалiвка"
  },
  "040": {
    "name": "с. Нове Село"
  },
  "041": {
    "name": "с. Пасiчна"
  },
  "042": {
    "name": "с. Перегінка"
  },
  "001": {
    "name": "с. Iванкiвцi"
  },
  "002": {
    "name": "с. Андріївка"
  },
  "003": {
    "name": "с. Антонiвцi"
  },
  "004": {
    "name": "с. Баламутiвка"
  },
  "005": {
    "name": "с. Баранiвка"
  },
  "006": {
    "name": "с. Боднарівка"
  },
  "007": {
    "name": "с. Борбухи"
  },
  "008": {
    "name": "с. Буйволiвцi"
  },
  "009": {
    "name": "с. Васильківці"
  },
  "010": {
    "name": "с. Вербка"
  },
  "011": {
    "name": "с. Вербка-Мурована"
  },
  "012": {
    "name": "с. Верхівці"
  },
  "013": {
    "name": "с. Видошня"
  },
  "014": {
    "name": "с. Виноградiвка"
  },
  "015": {
    "name": "с. Вихилівка"
  },
  "016": {
    "name": "с. Волудринці"
  },
  "017": {
    "name": "с. Глушкiвцi"
  },
  "018": {
    "name": "с. Глушковецьке"
  },
  "019": {
    "name": "с. Голохвасти"
  },
  "020": {
    "name": "с. Жилинцi"
  },
  "021": {
    "name": "с. Іванівка"
  },
  "022": {
    "name": "с. Кадиївка"
  },
  "023": {
    "name": "с. Коритна"
  },
  "043": {
    "name": "с. Правдiвка"
  },
  "044": {
    "name": "с. Проскурiвка"
  },
  "045": {
    "name": "с. Савинцi"
  },
  "046": {
    "name": "с. Скаржинцi"
  },
  "047": {
    "name": "с. Слобідка"
  },
  "048": {
    "name": "с. Слобідка-Глушковецька"
  },
  "049": {
    "name": "с. Слобідка-Кадиївська"
  },
  "050": {
    "name": "с. Соколiвка"
  },
  "051": {
    "name": "с. Солобкiвцi"
  },
  "052": {
    "name": "с. Соснівка"
  },
  "053": {
    "name": "с. Стрiхiвцi"
  },
  "054": {
    "name": "с. Суткiвцi"
  },
  "055": {
    "name": "с. Тарасівка"
  },
  "056": {
    "name": "с. Томашiвка"
  },
  "057": {
    "name": "с. Шарiвка"
  },
  "058": {
    "name": "с. Шевченка"
  },
  "060": {
    "name": "с. Ясенiвка"
  }
}