{
  "800": {
    "name": "м. Луганськ"
  },
  "001": {
    "name": "селище Дзержинське"
  },
  "003": {
    "name": "м. Олександрівськ"
  },
  "004": {
    "name": "селище Тепличне"
  },
  "005": {
    "name": "м. Щастя"
  },
  "006": {
    "name": "смт. Ювілейне"
  }
}