{
  "700": {
    "name": "м. Волочиськ"
  },
  "001": {
    "name": "с. Авратин"
  },
  "002": {
    "name": "с. Баглаї"
  },
  "003": {
    "name": "с. Бальківці"
  },
  "004": {
    "name": "с. Березина"
  },
  "005": {
    "name": "с. Богданiвка"
  },
  "006": {
    "name": "с. Бокиївка"
  },
  "007": {
    "name": "с. Бронiвка"
  },
  "008": {
    "name": "с. Бубнiвка"
  },
  "009": {
    "name": "с. Великі Жеребки"
  },
  "010": {
    "name": "с. Вигода"
  },
  "011": {
    "name": "с. Видава"
  },
  "012": {
    "name": "смт. Війтiвцi"
  },
  "013": {
    "name": "с. Вільшани"
  },
  "015": {
    "name": "с. Вочківці"
  },
  "016": {
    "name": "с. Гайдайки"
  },
  "017": {
    "name": "с. Гарнишiвка"
  },
  "018": {
    "name": "с. Глядки"
  },
  "019": {
    "name": "с. Гонорівка"
  },
  "020": {
    "name": "с. Гречана"
  },
  "021": {
    "name": "с. Дзеленцi"
  },
  "022": {
    "name": "с. Дзержинське"
  },
  "023": {
    "name": "с. Жовтневе"
  },
  "024": {
    "name": "с. Завалiйки"
  },
  "025": {
    "name": "с. Зайчики"
  },
  "026": {
    "name": "с. Збручівка"
  },
  "027": {
    "name": "с. Зелена"
  },
  "028": {
    "name": "с. Іванівка"
  },
  "029": {
    "name": "с. Іванівці"
  },
  "030": {
    "name": "с. Канівка"
  },
  "031": {
    "name": "с. Качуринці"
  },
  "032": {
    "name": "с. Клинини"
  },
  "033": {
    "name": "с. Копачiвка"
  },
  "034": {
    "name": "с. Копачівка Друга"
  },
  "035": {
    "name": "с. Користова"
  },
  "036": {
    "name": "с. Кривачинцi"
  },
  "037": {
    "name": "с. Криштопівка"
  },
  "038": {
    "name": "с. Купiль"
  },
  "039": {
    "name": "с. Курилiвка"
  },
  "040": {
    "name": "с. Куровечка"
  },
  "041": {
    "name": "с. Кушнирівка"
  },
  "042": {
    "name": "с. Кушнирівська Слобідка"
  },
  "043": {
    "name": "с. Кущівка"
  },
  "044": {
    "name": "с. Левківці"
  },
  "045": {
    "name": "с. Личівка"
  },
  "046": {
    "name": "с. Лозова"
  },
  "047": {
    "name": "с. Лонки"
  },
  "048": {
    "name": "с. Маначин"
  },
  "049": {
    "name": "с. Медведівка"
  },
  "050": {
    "name": "с. Мирівка"
  },
  "051": {
    "name": "с. Мислова"
  },
  "052": {
    "name": "с. Мочулинці"
  },
  "053": {
    "name": "с. Нова Гребля"
  },
  "054": {
    "name": "с. Новоленськ"
  },
  "055": {
    "name": "с. Ожигiвцi"
  },
  "056": {
    "name": "с. Павликiвцi"
  },
  "057": {
    "name": "с. Пальчинці"
  },
  "058": {
    "name": "с. Пахутинцi"
  },
  "059": {
    "name": "с. Петрикiвцi"
  },
  "060": {
    "name": "с. Петрівка"
  },
  "061": {
    "name": "с. Петрівське"
  },
  "062": {
    "name": "с. Петрівщина"
  },
  "063": {
    "name": "с. Писарiвка"
  },
  "064": {
    "name": "с. Поляни"
  },
  "065": {
    "name": "с. Попiвцi"
  },
  "066": {
    "name": "с. Порохня"
  },
  "067": {
    "name": "с. Постолівка"
  },
  "068": {
    "name": "с. Рiпна"
  },
  "069": {
    "name": "с. Раціборівка"
  },
  "070": {
    "name": "с. Рябiївка"
  },
  "071": {
    "name": "с. Сарнiв"
  },
  "072": {
    "name": "с. Сербинів"
  },
  "073": {
    "name": "с. Сергіївка"
  },
  "074": {
    "name": "с. Случ"
  },
  "075": {
    "name": "с. Соболівка"
  },
  "076": {
    "name": "с. Соломна"
  },
  "077": {
    "name": "с. Тарноруда"
  },
  "078": {
    "name": "с. Трительники"
  },
  "079": {
    "name": "с. Федiрки"
  },
  "080": {
    "name": "с. Холодець"
  },
  "081": {
    "name": "с. Червоний Кут"
  },
  "082": {
    "name": "с. Червоний Острів"
  },
  "083": {
    "name": "с. Чернява"
  },
  "084": {
    "name": "с. Чухелi"
  },
  "085": {
    "name": "с. Шмирки"
  },
  "086": {
    "name": "с. Щаснiвка"
  },
  "087": {
    "name": "с. Юхимiвцi"
  },
  "088": {
    "name": "с. Наркевичі"
  },
  "089": {
    "name": "с. Яхнiвцi"
  }
}