{
  "700": {
    "name": "м. Канiв"
  },
  "001": {
    "name": "с. Бабичі"
  },
  "002": {
    "name": "с. Бересняги"
  },
  "003": {
    "name": "с. Беркозiвка"
  },
  "004": {
    "name": "с. Бобриця"
  },
  "005": {
    "name": "с. Буда-Горобіївська"
  },
  "006": {
    "name": "с. Бучак"
  },
  "007": {
    "name": "с. Гамарня"
  },
  "008": {
    "name": "с. Глинча"
  },
  "009": {
    "name": "с. Голяки"
  },
  "010": {
    "name": "с. Горобiївка"
  },
  "011": {
    "name": "с. Григорiвка"
  },
  "012": {
    "name": "с. Грищинцi"
  },
  "013": {
    "name": "с. Дар’ївка"
  },
  "014": {
    "name": "с. Іваньків"
  },
  "016": {
    "name": "с. Келеберда"
  },
  "017": {
    "name": "с. Ключники"
  },
  "018": {
    "name": "с. Ковалі"
  },
  "019": {
    "name": "с. Козарiвка"
  },
  "020": {
    "name": "с. Кононча"
  },
  "021": {
    "name": "селище Копiювата"
  },
  "022": {
    "name": "с. Курилівка"
  },
  "023": {
    "name": "с. Лiпляве"
  },
  "024": {
    "name": "с. Лазірці"
  },
  "025": {
    "name": "с. Литвинець"
  },
  "026": {
    "name": "с. Лізки"
  },
  "027": {
    "name": "с. Лука"
  },
  "028": {
    "name": "с. Лукавиця"
  },
  "029": {
    "name": "с. Малий Ржавець"
  },
  "030": {
    "name": "с. Мартинiвка"
  },
  "031": {
    "name": "с. Межирiч"
  },
  "032": {
    "name": "с. Мельники"
  },
  "033": {
    "name": "с. Михайлiвка"
  },
  "034": {
    "name": "с. Нова Гута"
  },
  "035": {
    "name": "с. Новоукраїнка"
  },
  "036": {
    "name": "с. Озерище"
  },
  "037": {
    "name": "селище Орловець"
  },
  "038": {
    "name": "с. Павлiвка"
  },
  "039": {
    "name": "с. Пекарi"
  },
  "040": {
    "name": "с. Пилява"
  },
  "041": {
    "name": "с. Пищальники"
  },
  "042": {
    "name": "с. Полствин"
  },
  "043": {
    "name": "с. Попівка"
  },
  "044": {
    "name": "с. Потапцi"
  },
  "045": {
    "name": "с. Поташня"
  },
  "046": {
    "name": "с. Прохорiвка"
  },
  "047": {
    "name": "с. Пшеничники"
  },
  "048": {
    "name": "селище Райок"
  },
  "049": {
    "name": "с. Синявка"
  },
  "050": {
    "name": "селище Степанецьке"
  },
  "051": {
    "name": "с. Степанова"
  },
  "052": {
    "name": "с. Степанцi"
  },
  "053": {
    "name": "с. Студенець"
  },
  "054": {
    "name": "с. Сушки"
  },
  "055": {
    "name": "с. Таганча"
  },
  "056": {
    "name": "с. Трахтемирів"
  },
  "057": {
    "name": "с. Тростянець"
  },
  "058": {
    "name": "с. Трощин"
  },
  "059": {
    "name": "с. Хмiльна"
  },
  "060": {
    "name": "с. Хутір-Хмільна"
  },
  "061": {
    "name": "с. Черниші"
  },
  "062": {
    "name": "с. Яблунiв"
  }
}