{
  "100": {
    "name": "с. Ярова Білещина"
  },
  "101": {
    "name": "с. Світанкове "
  },
  "700": {
    "name": "м. Прилуки"
  },
  "001": {
    "name": "с. Iвкiвцi"
  },
  "002": {
    "name": "с. Бiлорiчиця"
  },
  "003": {
    "name": "с. Бiлошапки"
  },
  "004": {
    "name": "с. Бажанівка"
  },
  "005": {
    "name": "с. Білещина"
  },
  "006": {
    "name": "с. Богданiвка"
  },
  "007": {
    "name": "с. Боротьба"
  },
  "008": {
    "name": "с. Боршна"
  },
  "009": {
    "name": "с. Бубнiвщина"
  },
  "010": {
    "name": "с. Валки"
  },
  "011": {
    "name": "с. Велика Дiвиця"
  },
  "012": {
    "name": "с. Високе"
  },
  "013": {
    "name": "с. Володимирівка"
  },
  "014": {
    "name": "с. Світанкове"
  },
  "015": {
    "name": "с. Глинщина"
  },
  "016": {
    "name": "с. Голубівка"
  },
  "017": {
    "name": "с. Густиня"
  },
  "018": {
    "name": "с. Даньківка"
  },
  "019": {
    "name": "с. Дідівці"
  },
  "020": {
    "name": "с. Дубовий Гай"
  },
  "021": {
    "name": "с. Єгорівка"
  },
  "022": {
    "name": "с. Жовтневе"
  },
  "023": {
    "name": "с. Заїзд"
  },
  "024": {
    "name": "с. Замостя"
  },
  "025": {
    "name": "с. Запереводське"
  },
  "026": {
    "name": "с. Зарудка"
  },
  "027": {
    "name": "с. Заудаївське"
  },
  "028": {
    "name": "с. Заудайка"
  },
  "029": {
    "name": "с. Знам’янка"
  },
  "030": {
    "name": "с. Канiвщина"
  },
  "031": {
    "name": "с. Капустинці"
  },
  "032": {
    "name": "с. Клеці"
  },
  "033": {
    "name": "с. Ковтунівка"
  },
  "034": {
    "name": "с. Козин"
  },
  "035": {
    "name": "с. Колісники"
  },
  "036": {
    "name": "с. Комуна"
  },
  "037": {
    "name": "с. Красляни"
  },
  "038": {
    "name": "с. Кроти"
  },
  "039": {
    "name": "с. Крутоярівка"
  },
  "040": {
    "name": "с. Лiсовi Сорочинцi"
  },
  "041": {
    "name": "смт. Ладан"
  },
  "042": {
    "name": "с. Левки"
  },
  "043": {
    "name": "смт. Линовиця"
  },
  "044": {
    "name": "с. Лиски"
  },
  "045": {
    "name": "с. Лутайки"
  },
  "046": {
    "name": "с. Мазки"
  },
  "047": {
    "name": "смт. Мала Дiвиця"
  },
  "048": {
    "name": "с. Малкiвка"
  },
  "049": {
    "name": "с. Манжосівка"
  },
  "050": {
    "name": "с. Маціївка"
  },
  "051": {
    "name": "с. Миколаївка"
  },
  "052": {
    "name": "с. Мільки"
  },
  "053": {
    "name": "с. Мокляки"
  },
  "054": {
    "name": "с. Мохнівка"
  },
  "055": {
    "name": "с. Нетягівщина"
  },
  "056": {
    "name": "с. Нетяжине"
  },
  "057": {
    "name": "с. Нова Гребля"
  },
  "058": {
    "name": "с. Нова Тернавщина"
  },
  "059": {
    "name": "с. Новий Лад"
  },
  "060": {
    "name": "с. Обичiв"
  },
  "061": {
    "name": "с. Оникіївка"
  },
  "062": {
    "name": "с. Онищенків"
  },
  "063": {
    "name": "с. Охиньки"
  },
  "064": {
    "name": "с. Переволочна"
  },
  "065": {
    "name": "с. Перше Травня"
  },
  "066": {
    "name": "с. Петрiвка"
  },
  "067": {
    "name": "с. Петрівське"
  },
  "068": {
    "name": "с. Пирогівці"
  },
  "069": {
    "name": "с. Піддубівка"
  },
  "070": {
    "name": "с. Погреби"
  },
  "071": {
    "name": "с. Подище"
  },
  "072": {
    "name": "с. Покровка"
  },
  "073": {
    "name": "с. Полова"
  },
  "074": {
    "name": "с. Пологи"
  },
  "075": {
    "name": "с. Полонки"
  },
  "077": {
    "name": "с. Приозерне"
  },
  "078": {
    "name": "с. Пролетарське"
  },
  "079": {
    "name": "с. Пручаї"
  },
  "080": {
    "name": "с. Радьківка"
  },
  "081": {
    "name": "с. Рибці"
  },
  "082": {
    "name": "с. Рудiвка"
  },
  "083": {
    "name": "с. Ряшки"
  },
  "084": {
    "name": "с. Сергiївка"
  },
  "085": {
    "name": "с. Смош"
  },
  "086": {
    "name": "с. Стасівщина"
  },
  "087": {
    "name": "с. Стрільники"
  },
  "088": {
    "name": "с. Сухоліски"
  },
  "089": {
    "name": "с. Сухополова"
  },
  "090": {
    "name": "с. Сухоставець"
  },
  "091": {
    "name": "с. Сухоярівка"
  },
  "092": {
    "name": "с. Тарасівка"
  },
  "093": {
    "name": "с. Товкачiвка"
  },
  "094": {
    "name": "с. Тополя"
  },
  "095": {
    "name": "с. Турківка"
  },
  "096": {
    "name": "с. Удайцi"
  },
  "097": {
    "name": "с. Шевченка"
  },
  "098": {
    "name": "с. Яблунiвка"
  },
  "099": {
    "name": "с. Яблунівське"
  }
}