{
  "700": {
    "name": "смт. Високопiлля"
  },
  "001": {
    "name": "с. Iванiвка"
  },
  "002": {
    "name": "смт. Архангельське"
  },
  "003": {
    "name": "с. Благодатне"
  },
  "004": {
    "name": "с. Блакитне"
  },
  "005": {
    "name": "с. Вереміївка"
  },
  "008": {
    "name": "с. Заградiвка"
  },
  "009": {
    "name": "с. Зарiчне"
  },
  "010": {
    "name": "с. Кам’янка"
  },
  "011": {
    "name": "с. Князівка"
  },
  "012": {
    "name": "с. Костирка"
  },
  "013": {
    "name": "с. Кочубеївка"
  },
  "014": {
    "name": "с. Краснівка"
  },
  "015": {
    "name": "с. Мала Шестiрня"
  },
  "016": {
    "name": "с. Мар’їне"
  },
  "017": {
    "name": "с. Микільське"
  },
  "018": {
    "name": "с. Миколаївка"
  },
  "019": {
    "name": "с. Наталине"
  },
  "020": {
    "name": "с. Новобратське"
  },
  "021": {
    "name": "с. Нововознесенське"
  },
  "022": {
    "name": "с. Новогригорівське"
  },
  "023": {
    "name": "с. Новомиколаївка"
  },
  "024": {
    "name": "с. Новопетрiвка"
  },
  "025": {
    "name": "с. Ольгине"
  },
  "026": {
    "name": "с. Орлове"
  },
  "027": {
    "name": "с. Петрівське"
  },
  "028": {
    "name": "с. Потьомкине"
  },
  "029": {
    "name": "с. Пригiр’я"
  },
  "030": {
    "name": "с. Рівнопілля"
  },
  "031": {
    "name": "с. Розівка"
  },
  "032": {
    "name": "с. Світлівка"
  },
  "033": {
    "name": "с. Свободне"
  },
  "034": {
    "name": "с. Тополине"
  },
  "035": {
    "name": "с. Федорівка"
  },
  "036": {
    "name": "с. Червоноармійське"
  },
  "037": {
    "name": "с. Добрянка"
  }
}