{
  "800": {
    "name": "м. Iвано-Франкiвськ"
  },
  "002": {
    "name": "с. Вовчинець"
  },
  "003": {
    "name": "с. Крихiвцi"
  },
  "004": {
    "name": "с. Микитинці"
  },
  "005": {
    "name": "с. Угорники"
  },
  "006": {
    "name": "с. Хриплин"
  }
}