{
  "700": {
    "name": "м. Городок"
  },
  "015": {
    "name": "с. Грицькiв"
  },
  "016": {
    "name": "с. Дахнівка"
  },
  "017": {
    "name": "с. Жаглівка"
  },
  "018": {
    "name": "с. Жищинці"
  },
  "019": {
    "name": "с. Журавлинці"
  },
  "020": {
    "name": "с. Завадинці"
  },
  "021": {
    "name": "с. Зверхiвцi"
  },
  "022": {
    "name": "с. Іванівка"
  },
  "023": {
    "name": "с. Калинівка"
  },
  "024": {
    "name": "с. Калитинці"
  },
  "025": {
    "name": "с. Кам'янка"
  },
  "026": {
    "name": "с. Клинове"
  },
  "027": {
    "name": "с. Ковалівка"
  },
  "028": {
    "name": "с. Кремінна"
  },
  "029": {
    "name": "с. Кремінянські Хутори"
  },
  "030": {
    "name": "с. Кринцілів"
  },
  "031": {
    "name": "с. Кузьмин"
  },
  "032": {
    "name": "с. Куманiв"
  },
  "033": {
    "name": "с. Купин"
  },
  "034": {
    "name": "с. Курiвка"
  },
  "035": {
    "name": "с. Лiсоводи"
  },
  "036": {
    "name": "с. Лiсогiрка"
  },
  "037": {
    "name": "с. Липівка"
  },
  "038": {
    "name": "с. Ліпибоки"
  },
  "039": {
    "name": "с. Лісоводи, селище"
  },
  "040": {
    "name": "с. Мала Левада"
  },
  "041": {
    "name": "с. Мала Яромирка"
  },
  "042": {
    "name": "с. Мартинківці"
  },
  "043": {
    "name": "с. Матвійківці"
  },
  "044": {
    "name": "с. Мудриголови"
  },
  "045": {
    "name": "с. Немиринцi"
  },
  "046": {
    "name": "с. Нова Пісочна"
  },
  "047": {
    "name": "с. Нове Порiччя"
  },
  "048": {
    "name": "с. Новий Світ"
  },
  "049": {
    "name": "с. Новосілка"
  },
  "050": {
    "name": "с. Олександрівка"
  },
  "051": {
    "name": "с. Остапкiвцi"
  },
  "052": {
    "name": "с. Пiдлiсний Олексинець"
  },
  "053": {
    "name": "с. Папірня"
  },
  "054": {
    "name": "с. Підлісний Веселець"
  },
  "055": {
    "name": "с. Пільний Олексинець"
  },
  "056": {
    "name": "с. Покровка"
  },
  "057": {
    "name": "с. Радковиця"
  },
  "058": {
    "name": "смт. Сатанiв"
  },
  "059": {
    "name": "с. Сатанівка"
  },
  "060": {
    "name": "с. Сирватинцi"
  },
  "061": {
    "name": "с. Скипче"
  },
  "062": {
    "name": "с. Слобідка-Кузьминська"
  },
  "063": {
    "name": "с. Слобідка-Олексинецька"
  },
  "064": {
    "name": "с. Спасiвка"
  },
  "065": {
    "name": "с. Стара Пiсочна"
  },
  "066": {
    "name": "с. Старе Поріччя"
  },
  "067": {
    "name": "с. Тарасівка"
  },
  "068": {
    "name": "с. Тростянець"
  },
  "069": {
    "name": "с. Турчинцi"
  },
  "070": {
    "name": "с. Хмелiвка"
  },
  "071": {
    "name": "с. Хоптинці"
  },
  "072": {
    "name": "с. Чорниводи"
  },
  "073": {
    "name": "с. Шишківці"
  },
  "074": {
    "name": "с. Юринцi"
  },
  "001": {
    "name": "с. Iванкiвцi"
  },
  "002": {
    "name": "с. Андріївка"
  },
  "003": {
    "name": "с. Балакири"
  },
  "004": {
    "name": "с. Басівка"
  },
  "005": {
    "name": "с. Бедрикiвцi"
  },
  "006": {
    "name": "с. Борщівка"
  },
  "007": {
    "name": "с. Бубнівка"
  },
  "008": {
    "name": "с. Варiвцi"
  },
  "009": {
    "name": "с. Велика Левада"
  },
  "010": {
    "name": "с. Велика Яромирка"
  },
  "011": {
    "name": "с. Великий Карабчiїв"
  },
  "012": {
    "name": "с. Веселець"
  },
  "013": {
    "name": "с. Вигнанка"
  }
}